{
	"version": "v1",
	"kind": "RabbitMQMonitoring",
	"domain": "$.DocumentBody.meta_info.InfrastructureProvider",
	"location": "$.DocumentBody.meta_info.InfrastructureName",
	"apps": [
		{
			"app": "rabbitmq",
			"labels": {
				"machine": "$.MA",
                "node": "$.DocumentBody.meta_info.NodeName"
			},
			"services": [
				{
                    "collection": "$.DocumentBody.service.queues",
					"service": "queues",
					"labels": {
                        "queue": "$.DocumentBody.service.queues[*].name"
					},
					"metrics": [
						{
							"name": "queue_message_traffic_total",
							"value": "$.DocumentBody.service.queues[*].message_traffic.total",
							"timestamp": "$.TimeStamp",
							"labels": {}
						},
						{
							"name": "queue_message_traffic_ready",
							"value": "$.DocumentBody.service.queues[*].message_traffic.ready",
							"timestamp": "$.TimeStamp",
							"labels": {}
						},
						{
							"name": "queue_message_traffic_unacked",
							"value": "$.DocumentBody.service.queues[*].message_traffic.unacked",
							"timestamp": "$.TimeStamp",
							"labels": {}
						},
						{
							"name": "queue_consumer_utilisation",
							"value": "$.DocumentBody.service.queues[*].consumer_utilisation",
							"timestamp": "$.TimeStamp",
							"labels": {}
						}
					]
				},
				{
					"collection": "$.DocumentBody.service.exchanges",
                    "service": "exchanges",
                    "labels": {
                        "exchange": "$.DocumentBody.service.exchanges[*].name",
                        "type": "$.DocumentBody.service.exchanges[*].type"
                    },
					"metrics": [
						{
							"name": "exchanges_message_rate_in",
							"value": "$.DocumentBody.service.exchanges[*].message_rate_in",
							"timestamp": "$.TimeStamp",
							"labels": {}
						},
						{
							"name": "exchanges_message_rate_out",
							"value": "$.DocumentBody.service.exchanges[*].message_rate_out",
							"timestamp": "$.TimeStamp",
							"labels": {}
						}
					]
				}
			]
		}
	]
}